{
	"publisher": {
		"app_id": "",
        "amqp_url": "amqp://rabbit:rabbit@127.0.0.1:5672/myVhost",
		"exchange_name": "reporting",
	    "exchange_type": "fanout",
		"routing_keys": "",
		"delivery_mode": 1,
		"reply_to": ""
	},
	"consumer": {
		"name": "",
		"amqp_url": "amqp://rabbit:rabbit@127.0.0.1:5672/myVhost",
		"exchange_name": "repeater",
	    "exchange_type": "direct",
		"routing_keys": "example.route",
		"consumer_tag": "consumer",
		"queue": "repeat",
		"prefetch_count": 10,
		"durable": true,
		"exclusive": false,
	    "auto_delete": false,
		"arguments": {},
		"handler": {
			"name": "echo"
		}
	}
}